TIPN 6 - Grzebanie kombinerkami - dplyr
…
filter()

Pokaż mi wszystkie obserwacje, które…

filter(zbiór, warunki)

Wszystkie loty trzynastego maja

filter(flights, month == 5, day == 13)

## # A tibble: 979 x 19
##     year month   day dep_time sched_dep_time dep_delay arr_time
##    <int> <int> <int>    <int>          <int>     <dbl>    <int>
##  1  2013     5    13       16           2359       17.      350
##  2  2013     5    13      451            500       -9.      632
##  3  2013     5    13      508            515       -7.      728
##  4  2013     5    13      534            540       -6.      845
##  5  2013     5    13      539            545       -6.      815
##  6  2013     5    13      551            600       -9.      641
##  7  2013     5    13      552            600       -8.      903
##  8  2013     5    13      554            600       -6.      811
##  9  2013     5    13      554            600       -6.      834
## 10  2013     5    13      554            600       -6.      824
## # ... with 969 more rows, and 12 more variables: sched_arr_time <int>,
## #   arr_delay <dbl>, carrier <chr>, flight <int>, tailnum <chr>,
## #   origin <chr>, dest <chr>, air_time <dbl>, distance <dbl>, hour <dbl>,
## #   minute <dbl>, time_hour <dttm>

Wszystkie loty opóźnione o co najmniej dwie godziny

filter(flights, dep_delay > 120)

## # A tibble: 9,723 x 19
##     year month   day dep_time sched_dep_time dep_delay arr_time
##    <int> <int> <int>    <int>          <int>     <dbl>    <int>
##  1  2013     1     1      848           1835      853.     1001
##  2  2013     1     1      957            733      144.     1056
##  3  2013     1     1     1114            900      134.     1447
##  4  2013     1     1     1540           1338      122.     2020
##  5  2013     1     1     1815           1325      290.     2120
##  6  2013     1     1     1842           1422      260.     1958
##  7  2013     1     1     1856           1645      131.     2212
##  8  2013     1     1     1934           1725      129.     2126
##  9  2013     1     1     1938           1703      155.     2109
## 10  2013     1     1     1942           1705      157.     2124
## # ... with 9,713 more rows, and 12 more variables: sched_arr_time <int>,
## #   arr_delay <dbl>, carrier <chr>, flight <int>, tailnum <chr>,
## #   origin <chr>, dest <chr>, air_time <dbl>, distance <dbl>, hour <dbl>,
## #   minute <dbl>, time_hour <dttm>
…
Zapisz wynik filter() w nowym tibble

loty_z_jfk <- filter(flights, origin == "JFK")
loty_z_jfk

## # A tibble: 111,279 x 19
##     year month   day dep_time sched_dep_time dep_delay arr_time
##    <int> <int> <int>    <int>          <int>     <dbl>    <int>
##  1  2013     1     1      542            540        2.      923
##  2  2013     1     1      544            545       -1.     1004
##  3  2013     1     1      557            600       -3.      838
##  4  2013     1     1      558            600       -2.      849
##  5  2013     1     1      558            600       -2.      853
##  6  2013     1     1      558            600       -2.      924
##  7  2013     1     1      559            559        0.      702
##  8  2013     1     1      606            610       -4.      837
##  9  2013     1     1      611            600       11.      945
## 10  2013     1     1      613            610        3.      925
## # ... with 111,269 more rows, and 12 more variables: sched_arr_time <int>,
## #   arr_delay <dbl>, carrier <chr>, flight <int>, tailnum <chr>,
## #   origin <chr>, dest <chr>, air_time <dbl>, distance <dbl>, hour <dbl>,
## #   minute <dbl>, time_hour <dttm>

Sortuj z arrange()

arrange(flights, dep_delay)

## # A tibble: 336,776 x 19
##     year month   day dep_time sched_dep_time dep_delay arr_time
##    <int> <int> <int>    <int>          <int>     <dbl>    <int>
##  1  2013    12     7     2040           2123      -43.       40
##  2  2013     2     3     2022           2055      -33.     2240
##  3  2013    11    10     1408           1440      -32.     1549
##  4  2013     1    11     1900           1930      -30.     2233
##  5  2013     1    29     1703           1730      -27.     1947
##  6  2013     8     9      729            755      -26.     1002
##  7  2013    10    23     1907           1932      -25.     2143
##  8  2013     3    30     2030           2055      -25.     2213
##  9  2013     3     2     1431           1455      -24.     1601
## 10  2013     5     5      934            958      -24.     1225
## # ... with 336,766 more rows, and 12 more variables: sched_arr_time <int>,
## #   arr_delay <dbl>, carrier <chr>, flight <int>, tailnum <chr>,
## #   origin <chr>, dest <chr>, air_time <dbl>, distance <dbl>, hour <dbl>,
## #   minute <dbl>, time_hour <dttm>

Sortuj malejąco

arrange(flights, desc(arr_delay))

## # A tibble: 336,776 x 19
##     year month   day dep_time sched_dep_time dep_delay arr_time
##    <int> <int> <int>    <int>          <int>     <dbl>    <int>
##  1  2013     1     9      641            900     1301.     1242
##  2  2013     6    15     1432           1935     1137.     1607
##  3  2013     1    10     1121           1635     1126.     1239
##  4  2013     9    20     1139           1845     1014.     1457
##  5  2013     7    22      845           1600     1005.     1044
##  6  2013     4    10     1100           1900      960.     1342
##  7  2013     3    17     2321            810      911.      135
##  8  2013     7    22     2257            759      898.      121
##  9  2013    12     5      756           1700      896.     1058
## 10  2013     5     3     1133           2055      878.     1250
## # ... with 336,766 more rows, and 12 more variables: sched_arr_time <int>,
## #   arr_delay <dbl>, carrier <chr>, flight <int>, tailnum <chr>,
## #   origin <chr>, dest <chr>, air_time <dbl>, distance <dbl>, hour <dbl>,
## #   minute <dbl>, time_hour <dttm>

Sortuj po wielu zmiennych

arrange(flights, year, month, day)

## # A tibble: 336,776 x 19
##     year month   day dep_time sched_dep_time dep_delay arr_time
##    <int> <int> <int>    <int>          <int>     <dbl>    <int>
##  1  2013     1     1      517            515        2.      830
##  2  2013     1     1      533            529        4.      850
##  3  2013     1     1      542            540        2.      923
##  4  2013     1     1      544            545       -1.     1004
##  5  2013     1     1      554            600       -6.      812
##  6  2013     1     1      554            558       -4.      740
##  7  2013     1     1      555            600       -5.      913
##  8  2013     1     1      557            600       -3.      709
##  9  2013     1     1      557            600       -3.      838
## 10  2013     1     1      558            600       -2.      753
## # ... with 336,766 more rows, and 12 more variables: sched_arr_time <int>,
## #   arr_delay <dbl>, carrier <chr>, flight <int>, tailnum <chr>,
## #   origin <chr>, dest <chr>, air_time <dbl>, distance <dbl>, hour <dbl>,
## #   minute <dbl>, time_hour <dttm>

Wybierz tylko niektóre zmienne - select()

select(flights, carrier, flight)

## # A tibble: 336,776 x 2
##    carrier flight
##    <chr>    <int>
##  1 UA        1545
##  2 UA        1714
##  3 AA        1141
##  4 B6         725
##  5 DL         461
##  6 UA        1696
##  7 B6         507
##  8 EV        5708
##  9 B6          79
## 10 AA         301
## # ... with 336,766 more rows

Wybierz przedział zmiennych

select(flights, year:day)

## # A tibble: 336,776 x 3
##     year month   day
##    <int> <int> <int>
##  1  2013     1     1
##  2  2013     1     1
##  3  2013     1     1
##  4  2013     1     1
##  5  2013     1     1
##  6  2013     1     1
##  7  2013     1     1
##  8  2013     1     1
##  9  2013     1     1
## 10  2013     1     1
## # ... with 336,766 more rows

Pomocne funkcje wewnątrz select()

select(flights, starts_with("dep_")) # zaczyna się od
select(flights, ends_with("delay")) # konczy sie na
select(flights, contains("num")) # zawiera
select(flights, carrier, everything()) # "cała reszta"

Twórz nowe zmienne - mutate()

flights_sml <- select(flights, year:day, 
  ends_with("delay"))
mutate(flights_sml, gain = arr_delay - dep_delay)

## # A tibble: 336,776 x 6
##     year month   day dep_delay arr_delay  gain
##    <int> <int> <int>     <dbl>     <dbl> <dbl>
##  1  2013     1     1        2.       11.    9.
##  2  2013     1     1        4.       20.   16.
##  3  2013     1     1        2.       33.   31.
##  4  2013     1     1       -1.      -18.  -17.
##  5  2013     1     1       -6.      -25.  -19.
##  6  2013     1     1       -4.       12.   16.
##  7  2013     1     1       -5.       19.   24.
##  8  2013     1     1       -3.      -14.  -11.
##  9  2013     1     1       -3.       -8.   -5.
## 10  2013     1     1       -2.        8.   10.
## # ... with 336,766 more rows

mutate() korzysta z całej matematyki świata

mutate(flights_sml, log_gain = log(abs(arr_delay - dep_delay)))

## # A tibble: 336,776 x 6
##     year month   day dep_delay arr_delay log_gain
##    <int> <int> <int>     <dbl>     <dbl>    <dbl>
##  1  2013     1     1        2.       11.     2.20
##  2  2013     1     1        4.       20.     2.77
##  3  2013     1     1        2.       33.     3.43
##  4  2013     1     1       -1.      -18.     2.83
##  5  2013     1     1       -6.      -25.     2.94
##  6  2013     1     1       -4.       12.     2.77
##  7  2013     1     1       -5.       19.     3.18
##  8  2013     1     1       -3.      -14.     2.40
##  9  2013     1     1       -3.       -8.     1.61
## 10  2013     1     1       -2.        8.     2.30
## # ... with 336,766 more rows
…
